<svg xmlns="http://www.w3.org/2000/svg" viewBox="0 0 1417 276" width="1417" height="276">
	<style>
		tspan { white-space:pre }
		.shp0 { fill: #f1f1f1 } 
		.shp1 { fill: #dddfde } 
		.shp2 { fill: #989898 } 
		.shp3 { fill: #11405c } 
		.shp4 { fill: #06263b } 
		.shp5 { fill: none;stroke: #ffffff;stroke-width: 0.75 } 
		.shp6 { fill: #3d9ab4 } 
	</style>
	<g id="Layer">
		<path id="Layer" fill-rule="evenodd" class="shp0" d="M317.12 271.84L0.16 270.57C0.4 228.38 0.3 195.57 0.54 153.38C33.93 110.21 117.34 46.59 239.57 0.15C268.26 15.22 294.39 33.88 317.12 57.28L317.12 271.84Z" />
		<path id="Layer" fill-rule="evenodd" class="shp1" d="M317.12 271.84L239.25 271.54L239.25 0.28L239.57 0.15C268.26 15.22 294.39 33.88 317.12 57.28L317.12 271.84Z" />
		<path id="Layer" fill-rule="evenodd" class="shp2" d="M317.12 271.84L239.25 271.54L239.25 0.28L239.57 0.15C268.26 15.22 294.39 33.88 317.12 57.28L317.12 271.84Z" />
		<path id="Layer" fill-rule="evenodd" class="shp3" d="M0.39 179.54C0.41 174.09 0.44 168.65 0.46 163.2C68.38 92.19 151.29 55.92 239.22 31.25L239.43 31.37L239.43 66.03L239.32 65.98C147.71 81.64 68.1 119.51 0.39 179.54Z" />
		<path id="Layer" fill-rule="evenodd" class="shp3" d="M0.23 208.53C71.63 165.68 151.33 141.73 239.33 133.9L239.44 133.93L239.44 99.27L239.22 99.18C145.55 114.23 67.29 147.51 0.33 193.9C0.29 199.33 0.25 203.08 0.23 208.53Z" />
		<path id="Layer" fill-rule="evenodd" class="shp3" d="M0.23 238.09C70.49 215.37 151.55 205.11 239.33 202.57L239.44 202.57L239.44 167.88L239.22 167.84C155.39 176.79 74.72 192.96 0.33 223.46C0.29 228.34 0.25 233.23 0.23 238.09Z" />
		<path id="Layer" fill-rule="evenodd" class="shp3" d="M0.23 270.53L239.44 271.12L239.44 235.6L239.22 235.58C157.68 239.69 76.21 243.9 0.33 255.91C0.29 260.77 0.25 265.65 0.23 270.53Z" />
		<path id="Layer" fill-rule="evenodd" class="shp4" d="M239.44 31.36C267.3 45.87 293.14 62.67 317.13 81.55L317.13 107.04C292.12 91.95 266.88 77.22 239.44 66.03L239.44 31.36Z" />
		<path id="Layer" fill-rule="evenodd" class="shp4" d="M239.44 133.92C266.99 140.56 293.24 149.5 317.13 162.56L317.13 137.07C292.45 121.42 265.97 110.26 239.44 99.25L239.44 133.92Z" />
		<path id="Layer" fill-rule="evenodd" class="shp4" d="M239.44 202.58C264.62 203.17 290.61 207.74 317.13 215.03L317.13 189.53C293.33 180.22 267.25 173.19 239.44 167.89L239.44 202.58Z" />
		<path id="Layer" fill-rule="evenodd" class="shp4" d="M239.44 271.12L317.13 271.31L317.13 244.14C291.22 240.74 268.24 237.74 239.44 235.6L239.44 271.12Z" />
		<path id="Layer" fill-rule="evenodd" class="shp3" d="M907.11 205.09L920.07 218.05L913.7 224.47C909.32 228.85 904.3 232.23 898.69 234.57C893.02 236.9 887.12 238.07 880.94 238.07C874.75 238.07 868.85 236.9 863.24 234.57C857.58 232.23 852.56 228.85 848.17 224.47C843.62 219.92 840.23 214.78 838.07 209.05C835.91 203.39 834.8 197.55 834.8 191.65C834.8 185.75 835.91 180.03 838.07 174.36C840.23 168.75 843.62 163.67 848.17 159.12C852.67 154.62 857.81 151.24 863.53 148.96C869.19 146.68 875.03 145.57 880.93 145.57C886.83 145.57 892.61 146.68 898.33 148.96C904 151.24 909.14 154.62 913.69 159.12L920.06 165.55L868.78 216.83C873.98 219.46 879.53 220.27 885.37 219.4C891.21 218.52 896.29 215.84 900.67 211.46L907.11 205.09ZM861.15 171.92C855.66 177.41 852.92 184.01 852.92 191.72C852.92 195.99 853.85 200.01 855.78 203.87C857.48 202.24 859.98 199.72 863.37 196.34C866.7 193.01 870.26 189.45 874.06 185.65C877.85 181.85 881.47 178.23 884.98 174.79C888.48 171.34 891.17 168.71 893.09 166.78C887.89 164.15 882.35 163.28 876.51 164.1C870.67 164.91 865.53 167.54 861.15 171.92ZM809.46 108.03L827.8 108.03L827.8 237.62L809.46 237.62L809.46 108.03ZM710.53 191.71C710.53 185.23 711.76 179.21 714.15 173.67C716.54 168.12 719.82 163.22 724.02 159.01C728.22 154.86 733.13 151.53 738.79 149.14C744.4 146.74 750.35 145.58 756.66 145.58C763.14 145.58 769.16 146.75 774.71 149.14C780.26 151.53 785.22 154.86 789.48 159.01C793.74 163.22 797.07 168.12 799.47 173.67C801.87 179.22 803.03 185.23 803.03 191.71C803.03 198.02 801.86 203.98 799.47 209.58C797.08 215.25 793.75 220.15 789.48 224.41C785.22 228.67 780.26 232.06 774.71 234.46C769.16 236.85 763.15 238.08 756.66 238.08C750.35 238.08 744.39 236.85 738.79 234.46C733.13 232.07 728.22 228.68 724.02 224.41C719.81 220.15 716.54 215.24 714.15 209.58C711.76 203.98 710.53 198.02 710.53 191.71ZM728.63 191.71C728.63 195.57 729.39 199.19 730.85 202.64C732.31 206.08 734.3 209.06 736.81 211.57C739.32 214.08 742.3 216.07 745.74 217.53C749.19 219 752.81 219.75 756.66 219.75C760.51 219.75 764.13 218.99 767.58 217.53C771.03 216.07 774 214.09 776.57 211.57C779.08 209.06 781.07 206.08 782.52 202.64C783.98 199.19 784.68 195.57 784.68 191.71C784.68 187.86 783.98 184.24 782.52 180.85C781.06 177.52 779.08 174.54 776.57 172.03C774 169.52 771.02 167.53 767.58 166.07C764.13 164.61 760.51 163.91 756.66 163.91C752.8 163.91 749.18 164.61 745.74 166.07C742.3 167.53 739.31 169.52 736.81 172.03C734.29 174.54 732.31 177.52 730.85 180.85C729.4 184.24 728.63 187.86 728.63 191.71ZM705.22 163.45L695.94 163.45C692.08 163.45 688.46 164.15 685.14 165.61C681.75 167.07 678.77 169.11 676.26 171.63C673.75 174.14 671.76 177.12 670.3 180.45C668.84 183.84 668.14 187.45 668.14 191.31L668.14 237.62L649.57 237.62L649.57 191.31C649.57 184.82 650.79 178.81 653.19 173.26C655.59 167.71 658.91 162.81 663.18 158.6C667.44 154.45 672.35 151.13 678.01 148.74C683.62 146.34 689.57 145.12 695.94 145.12L705.22 145.12L705.22 163.45ZM642.96 219.28L642.96 237.62L633.91 237.62C627.54 237.62 621.59 236.39 615.98 234C610.31 231.61 605.41 228.28 601.14 224.01C596.88 219.75 593.55 214.84 591.16 209.18C588.76 203.58 587.54 197.62 587.54 191.31L587.54 108.03L605.88 108.03L605.88 163.68L642.96 163.68L642.96 182.02L605.88 182.02L605.88 191.31C605.88 195.1 606.58 198.73 608.04 202.17C609.5 205.62 611.49 208.66 614.06 211.17C616.57 213.68 619.55 215.66 622.99 217.12C626.44 218.58 630.06 219.28 633.91 219.28L642.96 219.28ZM488.84 191.48C488.84 185 490.07 178.98 492.46 173.43C494.86 167.88 498.13 163.04 502.33 158.83C506.53 154.62 511.44 151.29 517.11 148.9C522.72 146.5 528.67 145.34 534.98 145.34C541.46 145.34 547.48 146.5 553.03 148.9C558.58 151.29 563.54 154.62 567.81 158.83C572.07 163.04 575.4 167.88 577.79 173.43C580.19 178.98 581.35 184.99 581.35 191.48L581.35 237.85L563.01 237.85L563.01 191.48C563.01 187.63 562.31 184.01 560.85 180.68C559.39 177.35 557.4 174.37 554.89 171.8C552.32 169.29 549.34 167.3 545.9 165.84C542.45 164.38 538.83 163.68 534.98 163.68C531.13 163.68 527.5 164.38 524.17 165.84C520.84 167.3 517.86 169.29 515.35 171.8C512.78 174.37 510.8 177.35 509.33 180.68C507.87 184.01 507.17 187.63 507.17 191.48L507.17 237.85L488.83 237.85L488.83 191.48L488.84 191.48ZM390.14 191.71C390.14 185.23 391.37 179.21 393.76 173.67C396.15 168.12 399.43 163.22 403.63 159.01C407.83 154.86 412.74 151.53 418.41 149.14C424.02 146.74 429.97 145.58 436.28 145.58C442.76 145.58 448.78 146.75 454.33 149.14C459.88 151.53 464.84 154.86 469.11 159.01C473.37 163.22 476.7 168.12 479.1 173.67C481.5 179.22 482.66 185.23 482.66 191.71C482.66 198.02 481.49 203.98 479.1 209.58C476.7 215.25 473.37 220.15 469.11 224.41C464.85 228.67 459.88 232.06 454.33 234.46C448.78 236.85 442.77 238.08 436.28 238.08C429.97 238.08 424.02 236.85 418.41 234.46C412.75 232.07 407.84 228.68 403.63 224.41C399.43 220.15 396.15 215.24 393.76 209.58C391.37 203.98 390.14 198.02 390.14 191.71ZM408.24 191.71C408.24 195.57 409 199.19 410.46 202.64C411.92 206.08 413.91 209.06 416.42 211.57C418.93 214.08 421.91 216.07 425.35 217.53C428.8 219 432.42 219.75 436.27 219.75C440.13 219.75 443.75 218.99 447.19 217.53C450.64 216.07 453.62 214.09 456.18 211.57C458.69 209.06 460.68 206.08 462.14 202.64C463.6 199.19 464.3 195.57 464.3 191.71C464.3 187.86 463.6 184.24 462.14 180.85C460.68 177.52 458.69 174.54 456.18 172.03C453.61 169.52 450.63 167.53 447.19 166.07C443.74 164.61 440.13 163.91 436.27 163.91C432.42 163.91 428.79 164.61 425.35 166.07C421.9 167.53 418.93 169.52 416.42 172.03C413.91 174.54 411.92 177.52 410.46 180.85C409 184.24 408.24 187.86 408.24 191.71ZM311.01 158.72C315.51 154.23 320.65 150.78 326.37 148.5C332.03 146.22 337.88 145.11 343.77 145.11C349.67 145.11 355.45 146.22 361.17 148.5C366.84 150.78 371.97 154.23 376.53 158.72L382.89 165.15L370.1 178.12L363.5 171.75C360.76 169.01 357.72 166.9 354.27 165.5C350.82 164.15 347.32 163.46 343.76 163.46C340.19 163.46 336.69 164.16 333.25 165.5C329.8 166.9 326.71 169 323.96 171.75C321.22 174.38 319.17 177.36 317.83 180.8C316.43 184.25 315.73 187.69 315.73 191.25C315.73 194.81 316.43 198.32 317.83 201.76C319.18 205.2 321.22 208.3 323.96 211.04C329.45 216.53 336.05 219.27 343.76 219.27C347.44 219.27 351 218.57 354.45 217.22C357.9 215.88 360.88 213.78 363.5 211.03L370.1 204.67L382.89 217.63L376.53 224.06C371.97 228.56 366.84 231.95 361.17 234.22C355.45 236.5 349.67 237.61 343.77 237.61C337.87 237.61 332.03 236.5 326.37 234.22C320.65 231.94 315.5 228.55 311.01 224.06C306.45 219.51 303.07 214.42 300.91 208.76C298.75 203.15 297.64 197.37 297.64 191.36C297.64 185.4 298.75 179.62 300.91 173.96C303.06 168.36 306.45 163.27 311.01 158.72Z" />
		<path id="Layer" class="shp5" d="M300.9 173.98C298.71 179.62 297.6 185.42 297.6 191.39C297.6 197.36 298.7 203.17 300.9 208.8C303.1 214.44 306.46 219.51 311 224.04C315.53 228.58 320.65 231.97 326.35 234.25C332.05 236.51 337.86 237.64 343.76 237.64C349.66 237.64 355.47 236.51 361.17 234.25C366.87 231.98 371.99 228.58 376.52 224.04L382.9 217.66L370.12 204.68L363.53 211.07C360.92 213.82 357.9 215.88 354.47 217.26C351.04 218.63 347.47 219.32 343.76 219.32C336.07 219.32 329.47 216.57 323.98 211.07C321.23 208.33 319.17 205.24 317.8 201.8C316.42 198.37 315.74 194.86 315.74 191.29C315.74 187.72 316.43 184.22 317.8 180.78C319.17 177.35 321.24 174.32 323.98 171.71C326.72 168.97 329.82 166.91 333.25 165.53C336.68 164.16 340.18 163.47 343.76 163.47C347.34 163.47 350.83 164.16 354.27 165.53C357.7 166.91 360.79 168.97 363.54 171.71L370.13 178.11L382.91 165.13L376.53 158.74C372 154.21 366.88 150.81 361.18 148.55C355.48 146.28 349.67 145.15 343.77 145.15C337.86 145.15 332.06 146.28 326.36 148.55C320.66 150.82 315.55 154.21 311.01 158.74C306.46 163.27 303.09 168.36 300.9 173.98Z" />
		<path id="Layer" fill-rule="evenodd" class="shp5" d="M390.11 191.71C390.11 185.26 391.31 179.24 393.72 173.68C396.12 168.12 399.42 163.24 403.61 159.05C407.8 154.87 412.72 151.57 418.35 149.17C423.98 146.77 429.95 145.56 436.27 145.56C442.73 145.56 448.74 146.77 454.3 149.17C459.86 151.57 464.77 154.86 469.03 159.05C473.29 163.25 476.62 168.12 479.02 173.68C481.43 179.24 482.63 185.26 482.63 191.71C482.63 198.02 481.42 204 479.02 209.63C476.62 215.26 473.29 220.2 469.03 224.46C464.77 228.72 459.87 232.05 454.3 234.45C448.74 236.85 442.73 238.06 436.27 238.06C429.95 238.06 423.98 236.85 418.35 234.45C412.71 232.05 407.8 228.72 403.61 224.46C399.42 220.21 396.12 215.27 393.72 209.63C391.31 204 390.11 198.02 390.11 191.71ZM408.24 191.71C408.24 195.56 408.96 199.2 410.4 202.63C411.84 206.06 413.83 209.05 416.37 211.59C418.91 214.14 421.89 216.13 425.33 217.57C428.77 219.01 432.41 219.73 436.25 219.73C440.09 219.73 443.74 219.02 447.17 217.57C450.6 216.13 453.58 214.13 456.13 211.59C458.66 209.05 460.66 206.06 462.1 202.63C463.54 199.2 464.26 195.56 464.26 191.71C464.26 187.86 463.55 184.26 462.1 180.89C460.66 177.52 458.66 174.57 456.13 172.03C453.59 169.49 450.6 167.5 447.17 166.05C443.74 164.62 440.1 163.89 436.25 163.89C432.41 163.89 428.77 164.61 425.33 166.05C421.9 167.5 418.92 169.49 416.37 172.03C413.84 174.57 411.85 177.52 410.4 180.89C408.96 184.26 408.24 187.86 408.24 191.71Z" />
		<path id="Layer" class="shp5" d="M488.79 191.5L488.79 237.86L507.12 237.86L507.12 191.5C507.12 187.66 507.84 184.05 509.29 180.68C510.73 177.32 512.72 174.37 515.26 171.83C517.8 169.29 520.75 167.3 524.12 165.85C527.48 164.41 531.09 163.69 534.94 163.69C538.78 163.69 542.42 164.41 545.86 165.85C549.29 167.29 552.28 169.28 554.82 171.83C557.36 174.37 559.35 177.32 560.79 180.68C562.23 184.05 562.95 187.66 562.95 191.5L562.95 237.86L581.29 237.86L581.29 191.5C581.29 185.04 580.08 179.03 577.69 173.47C575.28 167.91 571.95 163.03 567.7 158.84C563.44 154.65 558.53 151.36 552.97 148.95C547.41 146.55 541.4 145.35 534.95 145.35C528.63 145.35 522.65 146.56 517.02 148.95C511.38 151.36 506.48 154.65 502.29 158.84C498.1 163.03 494.8 167.91 492.4 173.47C490 179.03 488.79 185.04 488.79 191.5Z" />
		<path id="Layer" class="shp5" d="M633.84 219.31C629.99 219.31 626.35 218.59 622.92 217.15C619.48 215.71 616.5 213.72 613.96 211.17C611.42 208.63 609.43 205.65 607.99 202.21C606.54 198.77 605.83 195.13 605.83 191.28L605.83 182.01L642.92 182.01L642.92 163.67L605.83 163.67L605.83 108.04L587.5 108.04L587.5 191.28C587.5 197.6 588.7 203.58 591.1 209.21C593.5 214.84 596.83 219.79 601.09 224.04C605.35 228.31 610.29 231.64 615.92 234.03C621.55 236.44 627.53 237.64 633.85 237.64L642.92 237.64L642.92 219.31L633.84 219.31Z" />
		<path id="Layer" class="shp5" d="M695.84 145.14C689.52 145.14 683.55 146.34 677.92 148.74C672.29 151.15 667.34 154.44 663.09 158.63C658.83 162.82 655.5 167.7 653.1 173.26C650.7 178.82 649.5 184.83 649.5 191.29L649.5 237.65L668.04 237.65L668.04 191.29C668.04 187.45 668.76 183.84 670.2 180.48C671.64 177.12 673.63 174.16 676.17 171.62C678.71 169.08 681.66 167.09 685.03 165.65C688.4 164.2 692 163.49 695.85 163.49L705.12 163.49L705.12 145.15L695.84 145.15L695.84 145.14Z" />
		<path id="Layer" fill-rule="evenodd" class="shp5" d="M710.47 191.71C710.47 185.26 711.68 179.24 714.08 173.68C716.48 168.12 719.78 163.24 723.97 159.05C728.16 154.87 733.07 151.57 738.7 149.17C744.33 146.77 750.31 145.56 756.62 145.56C763.08 145.56 769.09 146.77 774.65 149.17C780.21 151.57 785.12 154.86 789.38 159.05C793.63 163.25 796.96 168.12 799.37 173.68C801.77 179.24 802.97 185.26 802.97 191.71C802.97 198.02 801.77 204 799.37 209.63C796.97 215.26 793.64 220.2 789.38 224.46C785.12 228.72 780.21 232.05 774.65 234.45C769.09 236.85 763.08 238.06 756.62 238.06C750.31 238.06 744.33 236.85 738.7 234.45C733.07 232.05 728.16 228.72 723.97 224.46C719.78 220.21 716.48 215.27 714.08 209.63C711.68 204 710.47 198.02 710.47 191.71ZM728.61 191.71C728.61 195.56 729.33 199.2 730.77 202.63C732.21 206.06 734.2 209.05 736.74 211.59C739.28 214.14 742.27 216.13 745.7 217.57C749.13 219.01 752.78 219.73 756.62 219.73C760.46 219.73 764.1 219.02 767.54 217.57C770.97 216.13 773.96 214.13 776.5 211.59C779.05 209.05 781.04 206.06 782.48 202.63C783.92 199.2 784.64 195.56 784.64 191.71C784.64 187.86 783.92 184.26 782.48 180.89C781.03 177.52 779.04 174.57 776.5 172.03C773.96 169.49 770.97 167.5 767.54 166.05C764.11 164.62 760.47 163.89 756.62 163.89C752.77 163.89 749.13 164.61 745.7 166.05C742.27 167.5 739.28 169.49 736.74 172.03C734.2 174.57 732.21 177.52 730.77 180.89C729.33 184.26 728.61 187.86 728.61 191.71Z" />
		<path id="Layer" class="shp5" d="M809.36 108.06L827.7 108.06L827.7 237.65L809.36 237.65L809.36 108.06Z" />
		<path id="Layer" fill-rule="evenodd" class="shp5" d="M907.03 205.11L920.01 218.09L913.62 224.48C909.22 228.88 904.2 232.24 898.58 234.57C892.94 236.92 887.04 238.08 880.86 238.08C874.68 238.08 868.77 236.91 863.14 234.57C857.51 232.24 852.5 228.88 848.1 224.48C843.57 219.95 840.2 214.83 838.01 209.13C835.81 203.43 834.71 197.63 834.71 191.72C834.71 185.81 835.81 180.04 838.01 174.41C840.2 168.78 843.57 163.7 848.1 159.16C852.63 154.62 857.74 151.22 863.45 148.96C869.14 146.69 874.94 145.56 880.85 145.56C886.76 145.56 892.56 146.69 898.26 148.96C903.96 151.23 909.08 154.63 913.61 159.16L920 165.55L868.7 216.85C873.91 219.46 879.44 220.32 885.28 219.42C891.12 218.53 896.23 215.88 900.63 211.49L907.03 205.11ZM861.07 171.93C855.57 177.43 852.82 184.02 852.82 191.71C852.82 195.97 853.79 200.02 855.71 203.86C857.36 202.21 859.87 199.71 863.24 196.34L873.95 185.62C877.73 181.85 881.36 178.24 884.87 174.81C888.37 171.38 891.09 168.7 893.01 166.78C887.79 164.17 882.27 163.28 876.43 164.1C870.59 164.92 865.47 167.54 861.07 171.93Z" />
		<path id="Layer" fill-rule="evenodd" class="shp6" d="M1398.82 108.03L1417.16 108.03L1417.16 237.62L1398.82 237.62L1398.82 108.03ZM1347.08 145.11C1353.56 145.11 1359.58 146.33 1365.13 148.73C1370.68 151.12 1375.58 154.45 1379.79 158.59C1383.94 162.8 1387.27 167.7 1389.66 173.25C1392.06 178.8 1393.22 184.81 1393.22 191.3L1393.22 237.61L1347.08 237.61C1340.77 237.61 1334.81 236.38 1329.21 233.99C1323.55 231.6 1318.64 228.27 1314.38 224C1310.12 219.74 1306.73 214.83 1304.33 209.17C1301.94 203.57 1300.71 197.61 1300.71 191.3C1300.71 184.81 1301.94 178.8 1304.33 173.25C1306.73 167.7 1310.11 162.8 1314.38 158.59C1318.64 154.44 1323.55 151.12 1329.21 148.73C1334.82 146.34 1340.77 145.11 1347.08 145.11ZM1374.88 219.28L1374.88 191.31C1374.88 187.45 1374.18 183.83 1372.72 180.45C1371.26 177.12 1369.27 174.14 1366.76 171.63C1364.25 169.12 1361.27 167.07 1357.94 165.61C1354.55 164.15 1350.93 163.45 1347.08 163.45C1343.22 163.45 1339.6 164.15 1336.16 165.61C1332.71 167.07 1329.73 169.11 1327.23 171.63C1324.72 174.14 1322.73 177.12 1321.27 180.45C1319.81 183.84 1319.05 187.45 1319.05 191.31C1319.05 195.1 1319.81 198.73 1321.27 202.17C1322.73 205.62 1324.72 208.66 1327.23 211.17C1329.74 213.68 1332.72 215.66 1336.16 217.12C1339.6 218.58 1343.23 219.28 1347.08 219.28L1374.88 219.28ZM1276.88 145.11L1294.98 145.11L1294.98 237.62L1276.88 237.62L1276.88 145.11ZM1270.28 191.31C1270.28 197.61 1269.06 203.57 1266.66 209.18C1264.26 214.85 1260.93 219.75 1256.79 224.01C1252.58 228.27 1247.68 231.61 1242.07 234C1236.4 236.39 1230.45 237.62 1224.08 237.62C1217.77 237.62 1211.82 236.39 1206.21 234C1200.54 231.61 1195.64 228.28 1191.38 224.01C1187.11 219.75 1183.79 214.84 1181.39 209.18C1178.99 203.58 1177.77 197.62 1177.77 191.31C1177.77 184.82 1179 178.81 1181.39 173.26C1183.79 167.71 1187.11 162.81 1191.38 158.6C1195.64 154.45 1200.55 151.13 1206.21 148.74C1211.82 146.34 1217.78 145.12 1224.08 145.12L1251.93 145.12L1251.93 108.04L1270.28 108.04L1270.28 191.31ZM1224.09 219.28C1227.95 219.28 1231.56 218.58 1234.95 217.12C1238.28 215.66 1241.26 213.68 1243.77 211.17C1246.28 208.66 1248.33 205.62 1249.78 202.17C1251.24 198.73 1251.94 195.11 1251.94 191.31L1251.94 163.45L1224.09 163.45C1220.29 163.45 1216.67 164.15 1213.23 165.61C1209.78 167.07 1206.75 169.11 1204.23 171.63C1201.72 174.14 1199.73 177.12 1198.27 180.45C1196.81 183.84 1196.11 187.45 1196.11 191.31C1196.11 195.1 1196.81 198.73 1198.27 202.17C1199.73 205.62 1201.71 208.66 1204.23 211.17C1206.74 213.68 1209.78 215.66 1213.23 217.12C1216.67 218.58 1220.29 219.28 1224.09 219.28ZM1158.38 205.09L1171.35 218.05L1164.98 224.47C1160.6 228.85 1155.58 232.23 1149.97 234.57C1144.31 236.9 1138.41 238.07 1132.21 238.07C1126.02 238.07 1120.12 236.9 1114.52 234.57C1108.86 232.23 1103.83 228.85 1099.45 224.47C1094.89 219.92 1091.51 214.78 1089.35 209.05C1087.19 203.39 1086.08 197.55 1086.08 191.65C1086.08 185.75 1087.19 180.03 1089.35 174.36C1091.51 168.75 1094.89 163.67 1099.45 159.12C1103.95 154.62 1109.09 151.24 1114.81 148.96C1120.47 146.68 1126.32 145.57 1132.21 145.57C1138.11 145.57 1143.89 146.68 1149.62 148.96C1155.28 151.24 1160.42 154.62 1164.98 159.12L1171.35 165.55L1120.08 216.83C1125.28 219.46 1130.82 220.27 1136.66 219.4C1142.5 218.52 1147.58 215.84 1151.96 211.46L1158.38 205.09ZM1112.42 171.92C1106.93 177.41 1104.18 184.01 1104.18 191.72C1104.18 195.99 1105.12 200.01 1107.04 203.87C1108.73 202.24 1111.24 199.72 1114.63 196.34C1117.96 193.01 1121.52 189.45 1125.32 185.65C1129.11 181.85 1132.73 178.23 1136.24 174.79C1139.75 171.34 1142.43 168.71 1144.36 166.78C1139.16 164.15 1133.61 163.28 1127.77 164.1C1121.94 164.91 1116.8 167.54 1112.42 171.92ZM1080.54 163.45L1071.25 163.45C1067.39 163.45 1063.77 164.15 1060.45 165.61C1057.06 167.07 1054.09 169.11 1051.57 171.63C1049.06 174.14 1047.07 177.12 1045.61 180.45C1044.15 183.84 1043.45 187.45 1043.45 191.31L1043.45 237.62L1024.88 237.62L1024.88 191.31C1024.88 184.82 1026.11 178.81 1028.5 173.26C1030.9 167.71 1034.23 162.81 1038.49 158.6C1042.75 154.45 1047.66 151.13 1053.32 148.74C1058.93 146.34 1064.88 145.12 1071.25 145.12L1080.54 145.12L1080.54 163.45ZM972.55 145.58C979.03 145.58 985.05 146.75 990.6 149.14C996.15 151.53 1001.06 154.86 1005.32 159.01C1009.58 163.22 1012.91 168.12 1015.31 173.67C1017.7 179.22 1018.93 185.23 1018.93 191.71C1018.93 198.02 1017.7 203.98 1015.31 209.58C1012.91 215.25 1009.59 220.15 1005.32 224.41C1001.06 228.67 996.15 232.06 990.6 234.46C985.05 236.85 979.04 238.08 972.55 238.08L944.75 238.08L944.75 275.17L926.42 275.17L926.42 191.71C926.42 185.23 927.64 179.21 930.04 173.67C932.43 168.12 935.7 163.22 939.91 159.01C944.05 154.86 948.96 151.53 954.63 149.14C960.23 146.75 966.18 145.58 972.55 145.58ZM972.55 219.75C976.41 219.75 980.03 218.99 983.47 217.53C986.92 216.07 989.9 214.09 992.41 211.57C994.92 209.06 996.96 206.08 998.42 202.64C999.88 199.19 1000.58 195.57 1000.58 191.71C1000.58 187.86 999.88 184.24 998.42 180.85C996.96 177.52 994.92 174.54 992.41 172.03C989.9 169.52 986.92 167.53 983.47 166.07C980.03 164.61 976.41 163.91 972.55 163.91C968.7 163.91 965.08 164.61 961.75 166.07C958.36 167.53 955.38 169.52 952.87 172.03C950.36 174.54 948.37 177.52 946.91 180.85C945.45 184.24 944.75 187.85 944.75 191.71L944.75 219.75L972.55 219.75Z" />
		<path id="Layer" fill-rule="evenodd" class="shp5" d="M972.54 145.56C978.99 145.56 985.01 146.77 990.57 149.17C996.13 151.56 1001.03 154.86 1005.29 159.05C1009.56 163.25 1012.89 168.12 1015.29 173.68C1017.7 179.24 1018.9 185.26 1018.9 191.71C1018.9 198.02 1017.7 204 1015.29 209.63C1012.88 215.26 1009.55 220.2 1005.29 224.46C1001.04 228.72 996.13 232.05 990.57 234.45C985.01 236.85 978.99 238.06 972.54 238.06L944.72 238.06L944.72 275.14L926.39 275.14L926.39 191.7C926.39 185.25 927.58 179.23 929.99 173.67C932.39 168.11 935.69 163.23 939.88 159.04C944.06 154.86 948.97 151.56 954.61 149.16C960.24 146.76 966.22 145.55 972.54 145.56ZM983.46 217.56C986.88 216.12 989.87 214.12 992.42 211.58C994.96 209.04 996.96 206.05 998.4 202.62C999.84 199.19 1000.56 195.55 1000.56 191.7C1000.56 187.85 999.84 184.25 998.4 180.88C996.95 177.52 994.96 174.56 992.42 172.02C989.87 169.49 986.89 167.5 983.46 166.05C980.02 164.62 976.38 163.89 972.54 163.89C968.69 163.89 965.08 164.61 961.72 166.05C958.35 167.49 955.4 169.48 952.86 172.02C950.31 174.56 948.32 177.51 946.89 180.88C945.45 184.25 944.72 187.86 944.72 191.7L944.72 219.72L972.54 219.72C976.37 219.72 980.02 219 983.46 217.56Z" />
		<path id="Layer" class="shp5" d="M1071.22 145.14C1064.9 145.14 1058.93 146.34 1053.29 148.74C1047.66 151.15 1042.72 154.44 1038.46 158.63C1034.2 162.82 1030.87 167.7 1028.46 173.26C1026.06 178.82 1024.86 184.83 1024.86 191.29L1024.86 237.65L1043.41 237.65L1043.41 191.29C1043.41 187.45 1044.13 183.84 1045.58 180.48C1047.02 177.12 1049.01 174.16 1051.56 171.62C1054.1 169.08 1057.05 167.09 1060.42 165.65C1063.78 164.2 1067.39 163.49 1071.24 163.49L1080.52 163.49L1080.52 145.15L1071.22 145.15L1071.22 145.14Z" />
		<path id="Layer" fill-rule="evenodd" class="shp5" d="M1158.37 205.11L1171.35 218.09L1164.96 224.48C1160.56 228.88 1155.55 232.24 1149.92 234.57C1144.28 236.92 1138.38 238.08 1132.2 238.08C1126.02 238.08 1120.12 236.91 1114.49 234.57C1108.85 232.24 1103.85 228.88 1099.45 224.48C1094.92 219.95 1091.55 214.83 1089.36 209.13C1087.16 203.43 1086.06 197.63 1086.06 191.72C1086.06 185.81 1087.16 180.04 1089.36 174.41C1091.55 168.78 1094.92 163.7 1099.45 159.16C1103.98 154.62 1109.1 151.22 1114.8 148.96C1120.49 146.69 1126.3 145.56 1132.2 145.56C1138.11 145.56 1143.91 146.69 1149.61 148.96C1155.31 151.23 1160.43 154.63 1164.96 159.16L1171.35 165.55L1120.04 216.85C1125.26 219.46 1130.79 220.32 1136.63 219.42C1142.47 218.53 1147.58 215.88 1151.98 211.49L1158.37 205.11ZM1112.44 171.93C1106.94 177.43 1104.19 184.02 1104.19 191.71C1104.19 195.97 1105.15 200.02 1107.07 203.86C1108.71 202.21 1111.22 199.71 1114.59 196.34L1125.31 185.62C1129.08 181.85 1132.71 178.24 1136.22 174.81C1139.72 171.38 1142.44 168.7 1144.36 166.78C1139.14 164.17 1133.62 163.28 1127.78 164.1C1121.93 164.92 1116.82 167.54 1112.44 171.93Z" />
		<path id="Layer" fill-rule="evenodd" class="shp5" d="M1270.23 108.05L1270.23 191.29C1270.23 197.62 1269.03 203.59 1266.62 209.22C1264.22 214.86 1260.92 219.8 1256.74 224.06C1252.55 228.32 1247.64 231.65 1242.01 234.05C1236.38 236.46 1230.41 237.66 1224.09 237.66C1217.77 237.66 1211.79 236.46 1206.16 234.05C1200.53 231.65 1195.58 228.32 1191.33 224.06C1187.07 219.8 1183.74 214.85 1181.34 209.22C1178.94 203.59 1177.74 197.61 1177.74 191.29C1177.74 184.83 1178.93 178.82 1181.34 173.26C1183.73 167.69 1187.07 162.82 1191.33 158.63C1195.58 154.44 1200.53 151.15 1206.16 148.74C1211.79 146.34 1217.77 145.14 1224.09 145.14L1251.9 145.14L1251.9 108.05L1270.23 108.05ZM1224.07 219.31C1227.92 219.31 1231.52 218.59 1234.89 217.15C1238.25 215.7 1241.2 213.72 1243.75 211.17C1246.29 208.63 1248.29 205.65 1249.73 202.21C1251.17 198.78 1251.89 195.14 1251.89 191.29L1251.89 163.48L1224.08 163.48C1220.24 163.48 1216.59 164.2 1213.16 165.65C1209.73 167.09 1206.74 169.08 1204.21 171.62C1201.65 174.17 1199.66 177.12 1198.23 180.48C1196.79 183.84 1196.06 187.45 1196.06 191.29C1196.06 195.14 1196.79 198.78 1198.23 202.21C1199.67 205.65 1201.66 208.63 1204.21 211.17C1206.74 213.72 1209.73 215.71 1213.16 217.15C1216.6 218.59 1220.24 219.31 1224.07 219.31Z" />
		<path id="Layer" class="shp5" d="M1276.83 145.14L1294.95 145.14L1294.95 237.64L1276.83 237.64L1276.83 145.14Z" />
		<path id="Layer" fill-rule="evenodd" class="shp5" d="M1347.09 145.14C1353.54 145.14 1359.56 146.34 1365.12 148.74C1370.68 151.14 1375.56 154.44 1379.75 158.63C1383.94 162.82 1387.23 167.7 1389.63 173.26C1392.04 178.83 1393.24 184.84 1393.24 191.29L1393.24 237.65L1347.09 237.65C1340.77 237.65 1334.79 236.45 1329.16 234.05C1323.52 231.65 1318.58 228.32 1314.32 224.06C1310.06 219.8 1306.73 214.85 1304.33 209.22C1301.93 203.59 1300.72 197.61 1300.72 191.29C1300.72 184.83 1301.93 178.82 1304.33 173.26C1306.73 167.7 1310.06 162.82 1314.32 158.63C1318.58 154.44 1323.52 151.15 1329.16 148.74C1334.79 146.34 1340.77 145.14 1347.09 145.14ZM1347.08 219.3L1374.89 219.3L1374.89 191.28C1374.89 187.44 1374.17 183.84 1372.72 180.47C1371.28 177.1 1369.3 174.15 1366.75 171.61C1364.22 169.07 1361.27 167.08 1357.9 165.64C1354.53 164.19 1350.92 163.47 1347.08 163.47C1343.23 163.47 1339.59 164.19 1336.16 165.64C1332.72 167.08 1329.74 169.07 1327.19 171.61C1324.66 174.15 1322.66 177.1 1321.22 180.47C1319.78 183.83 1319.06 187.44 1319.06 191.28C1319.06 195.13 1319.78 198.77 1321.22 202.21C1322.66 205.65 1324.65 208.63 1327.19 211.17C1329.74 213.72 1332.72 215.71 1336.16 217.15C1339.59 218.59 1343.23 219.31 1347.08 219.31L1347.08 219.3Z" />
		<path id="Layer" class="shp5" d="M1398.8 108.06L1417.14 108.06L1417.14 237.65L1398.8 237.65L1398.8 108.06Z" />
		<path id="Layer" fill-rule="evenodd" class="shp3" d="M605.78 268.07L605.78 253.4L601.1 253.4L601.1 251.52L612.43 251.52L612.43 253.4L607.77 253.4L607.77 268.07L605.78 268.07ZM588.99 250.37L588.99 273.53L587.57 273.53L587.57 250.37L588.99 250.37ZM563.47 262.92C563.47 262.16 563.6 261.44 563.89 260.77C564.17 260.09 564.58 259.5 565.11 258.96C565.64 258.44 566.25 258.04 566.93 257.76C567.61 257.48 568.33 257.35 569.1 257.35C569.85 257.35 570.57 257.49 571.25 257.76C571.92 258.04 572.53 258.45 573.08 258.99C573.61 259.51 574.02 260.11 574.3 260.78C574.58 261.46 574.72 262.17 574.72 262.92C574.72 263.68 574.58 264.39 574.3 265.05C574.02 265.72 573.61 266.32 573.08 266.83C572.53 267.38 571.92 267.79 571.24 268.08C570.56 268.36 569.85 268.51 569.11 268.51C568.35 268.51 567.63 268.37 566.94 268.09C566.25 267.81 565.65 267.4 565.12 266.87C564.59 266.32 564.18 265.72 563.9 265.06C563.61 264.39 563.47 263.68 563.47 262.92ZM565.35 262.92C565.35 264.02 565.72 264.94 566.45 265.7C567.18 266.45 568.06 266.83 569.11 266.83C570.14 266.83 571.02 266.45 571.75 265.7C572.47 264.94 572.84 264.02 572.84 262.92C572.84 261.82 572.48 260.9 571.75 260.14C571.02 259.39 570.14 259.01 569.11 259.01C568.07 259.01 567.18 259.39 566.45 260.14C565.72 260.9 565.35 261.83 565.35 262.92ZM559.25 252.97L559.25 252.97C559.25 252.97 559.25 252.96 559.25 252.96L559.25 252.97ZM558.45 254.72C558.07 255.12 557.59 255.32 557.02 255.32C556.92 255.32 556.81 255.31 556.68 255.29C556.55 255.27 556.41 255.24 556.28 255.2L555.19 254.9C555.09 254.87 555 254.85 554.91 254.83C554.81 254.81 554.73 254.8 554.64 254.8C554.41 254.8 554.2 254.87 554.04 255C553.87 255.13 553.73 255.32 553.63 255.57L552.63 255.57C552.77 254.82 553.02 254.25 553.4 253.85C553.78 253.45 554.25 253.25 554.81 253.25C554.94 253.25 555.06 253.26 555.17 253.27C555.28 253.29 555.39 253.31 555.48 253.35L556.59 253.67C556.77 253.71 556.89 253.75 556.98 253.76C557.07 253.78 557.14 253.79 557.2 253.79C557.45 253.79 557.67 253.72 557.84 253.59C558.02 253.45 558.16 253.25 558.26 252.97L559.25 252.97C559.1 253.74 558.83 254.32 558.45 254.72ZM560.77 268.06L559.05 268.06L559.05 266.19C558.64 266.95 558.11 267.52 557.47 267.91C556.82 268.31 556.1 268.51 555.3 268.51C553.82 268.51 552.62 268 551.71 266.97C550.8 265.95 550.34 264.6 550.34 262.92C550.34 261.22 550.78 259.86 551.67 258.86C552.55 257.86 553.73 257.35 555.21 257.35C556.08 257.35 556.83 257.54 557.47 257.93C558.11 258.31 558.62 258.9 559.01 259.67L559.01 257.73L560.77 257.73L560.77 268.06ZM559.05 262.99C559.05 261.82 558.74 260.88 558.1 260.17C557.46 259.45 556.63 259.1 555.6 259.1C554.54 259.1 553.71 259.43 553.12 260.09C552.52 260.75 552.23 261.66 552.23 262.83C552.23 264.08 552.53 265.05 553.13 265.72C553.72 266.4 554.58 266.74 555.68 266.74C556.74 266.74 557.57 266.41 558.17 265.75C558.76 265.09 559.05 264.17 559.05 262.99ZM542.05 272.88L542.05 271.75C542.65 271.89 543.19 271.99 543.67 272.07C544.15 272.15 544.54 272.19 544.83 272.19C545.28 272.19 545.63 272.11 545.86 271.96C546.09 271.8 546.2 271.57 546.2 271.26C546.2 270.93 546.08 270.69 545.83 270.53C545.59 270.37 545.2 270.29 544.68 270.29C544.53 270.29 544.41 270.29 544.33 270.3C544.25 270.31 544.17 270.31 544.08 270.31L544.08 268.41C544.36 268.46 544.64 268.48 544.94 268.5L544.94 269.22L545.27 269.22C546.09 269.22 546.72 269.39 547.15 269.74C547.58 270.09 547.8 270.59 547.8 271.26C547.8 271.95 547.55 272.48 547.08 272.84C546.6 273.2 545.9 273.39 544.98 273.39C544.61 273.39 544.17 273.35 543.68 273.27C543.17 273.18 542.63 273.05 542.05 272.88ZM544.08 268.41C542.99 268.22 542.08 267.74 541.34 266.98C540.36 265.97 539.88 264.64 539.88 262.99C539.88 261.33 540.38 259.98 541.39 258.92C542.4 257.87 543.69 257.35 545.26 257.35C545.83 257.35 546.4 257.41 546.94 257.53C547.48 257.65 548 257.83 548.48 258.07L548.48 259.97C548.03 259.67 547.56 259.45 547.08 259.29C546.59 259.14 546.1 259.06 545.61 259.06C544.45 259.06 543.52 259.42 542.82 260.15C542.12 260.88 541.77 261.85 541.77 263.05C541.77 264.11 542.13 265 542.83 265.71C543.53 266.43 544.42 266.79 545.48 266.79C546.01 266.79 546.54 266.7 547.05 266.51C547.57 266.32 548.11 266.02 548.68 265.61L548.68 267.67C548.21 267.94 547.69 268.16 547.1 268.29C546.52 268.43 545.88 268.5 545.2 268.5C545.11 268.5 545.03 268.5 544.94 268.5L544.94 268.07L544.08 268.07L544.08 268.41ZM537.2 268.06L535.48 268.06L535.48 266.19C535.07 266.95 534.54 267.52 533.9 267.91C533.25 268.31 532.53 268.51 531.73 268.51C530.24 268.51 529.05 268 528.14 266.97C527.23 265.95 526.78 264.6 526.78 262.92C526.78 261.22 527.22 259.86 528.11 258.86C528.99 257.86 530.17 257.35 531.65 257.35C532.52 257.35 533.27 257.54 533.91 257.93C534.54 258.31 535.05 258.9 535.45 259.67L535.45 257.73L537.2 257.73L537.2 268.06ZM535.48 262.99C535.48 261.82 535.16 260.88 534.53 260.17C533.89 259.45 533.06 259.1 532.03 259.1C530.97 259.1 530.14 259.43 529.54 260.09C528.95 260.75 528.65 261.66 528.65 262.83C528.65 264.08 528.95 265.05 529.55 265.72C530.14 266.4 531 266.74 532.1 266.74C533.16 266.74 533.99 266.41 534.59 265.75C535.18 265.09 535.48 264.17 535.48 262.99ZM520.57 268.71L515.45 257.72L517.44 257.72L520.55 264.95L523.67 257.72L525.66 257.72L520.57 268.71ZM503.16 262.92C503.16 262.16 503.3 261.44 503.58 260.77C503.86 260.09 504.27 259.5 504.8 258.96C505.33 258.44 505.94 258.04 506.62 257.76C507.3 257.48 508.03 257.35 508.79 257.35C509.54 257.35 510.26 257.49 510.94 257.76C511.61 258.04 512.23 258.45 512.77 258.99C513.31 259.51 513.72 260.11 514 260.78C514.28 261.46 514.41 262.17 514.41 262.92C514.41 263.68 514.27 264.39 514 265.05C513.72 265.72 513.31 266.32 512.77 266.83C512.23 267.38 511.61 267.79 510.93 268.08C510.25 268.36 509.53 268.51 508.79 268.51C508.03 268.51 507.31 268.37 506.62 268.09C505.94 267.81 505.33 267.4 504.8 266.87C504.27 266.32 503.86 265.72 503.58 265.06C503.3 264.39 503.16 263.68 503.16 262.92ZM505.03 262.92C505.03 264.02 505.4 264.94 506.13 265.7C506.86 266.45 507.74 266.83 508.79 266.83C509.82 266.83 510.7 266.45 511.43 265.7C512.15 264.94 512.51 264.02 512.51 262.92C512.51 261.82 512.15 260.9 511.43 260.14C510.7 259.39 509.82 259.01 508.79 259.01C507.75 259.01 506.86 259.39 506.13 260.14C505.4 260.9 505.03 261.83 505.03 262.92ZM491.1 257.73L492.83 257.73L492.83 259.33C493.27 258.67 493.82 258.17 494.44 257.85C495.06 257.53 495.79 257.36 496.6 257.36C497.83 257.36 498.78 257.68 499.47 258.33C500.15 258.98 500.49 259.88 500.49 261.03L500.49 268.07L498.68 268.07L498.68 261.98C498.68 260.93 498.46 260.15 498.02 259.64C497.58 259.14 496.89 258.88 495.98 258.88C495.45 258.88 494.97 258.97 494.54 259.16C494.1 259.35 493.74 259.62 493.46 259.98C493.24 260.25 493.08 260.56 492.99 260.91C492.89 261.26 492.84 261.86 492.84 262.72L492.84 268.07L491.1 268.07L491.1 257.73ZM485.32 268.07L485.32 251.52L487.28 251.52L487.28 268.07L485.32 268.07ZM471.4 250.37L471.4 273.53L469.97 273.53L469.97 250.37L471.4 250.37ZM445.87 262.92C445.87 262.16 446.01 261.44 446.29 260.77C446.57 260.09 446.98 259.5 447.51 258.96C448.04 258.44 448.65 258.04 449.33 257.76C450.01 257.48 450.73 257.35 451.5 257.35C452.25 257.35 452.96 257.49 453.65 257.76C454.32 258.04 454.93 258.45 455.48 258.99C456.02 259.51 456.43 260.11 456.71 260.78C456.98 261.46 457.12 262.17 457.12 262.92C457.12 263.68 456.98 264.39 456.71 265.05C456.43 265.72 456.02 266.32 455.48 266.83C454.94 267.38 454.32 267.79 453.64 268.08C452.95 268.36 452.25 268.51 451.51 268.51C450.75 268.51 450.02 268.37 449.34 268.09C448.66 267.81 448.05 267.4 447.52 266.87C446.99 266.32 446.58 265.72 446.3 265.06C446.02 264.39 445.87 263.68 445.87 262.92ZM447.75 262.92C447.75 264.02 448.12 264.94 448.85 265.7C449.58 266.45 450.46 266.83 451.51 266.83C452.54 266.83 453.42 266.45 454.15 265.7C454.87 264.94 455.23 264.02 455.23 262.92C455.23 261.82 454.87 260.9 454.15 260.14C453.42 259.39 452.54 259.01 451.51 259.01C450.47 259.01 449.58 259.39 448.85 260.14C448.12 260.9 447.75 261.83 447.75 262.92ZM441.65 252.97L441.65 252.97C441.65 252.97 441.65 252.96 441.65 252.96L441.65 252.97ZM440.85 254.72C440.47 255.12 439.99 255.32 439.42 255.32C439.32 255.32 439.21 255.31 439.09 255.29C438.96 255.27 438.82 255.24 438.68 255.2L437.59 254.9C437.49 254.87 437.4 254.85 437.31 254.83C437.21 254.81 437.13 254.8 437.04 254.8C436.8 254.8 436.6 254.87 436.44 255C436.27 255.13 436.13 255.32 436.03 255.57L435.03 255.57C435.17 254.82 435.42 254.25 435.8 253.85C436.18 253.45 436.65 253.25 437.21 253.25C437.33 253.25 437.46 253.26 437.57 253.27C437.68 253.29 437.78 253.31 437.87 253.35L438.98 253.67C439.16 253.71 439.28 253.75 439.37 253.76C439.46 253.78 439.53 253.79 439.6 253.79C439.85 253.79 440.07 253.72 440.24 253.59C440.41 253.45 440.56 253.25 440.66 252.97L441.65 252.97C441.5 253.74 441.23 254.32 440.85 254.72ZM443.17 268.06L441.45 268.06L441.45 266.19C441.04 266.95 440.51 267.52 439.87 267.91C439.22 268.31 438.5 268.51 437.7 268.51C436.21 268.51 435.02 268 434.11 266.97C433.2 265.95 432.75 264.6 432.75 262.92C432.75 261.22 433.19 259.86 434.07 258.86C434.95 257.86 436.13 257.35 437.61 257.35C438.48 257.35 439.23 257.54 439.87 257.93C440.5 258.31 441.01 258.9 441.41 259.67L441.41 257.73L443.17 257.73L443.17 268.06ZM441.45 262.99C441.45 261.82 441.13 260.88 440.5 260.17C439.86 259.45 439.03 259.1 438.01 259.1C436.95 259.1 436.12 259.43 435.52 260.09C434.92 260.75 434.63 261.66 434.63 262.83C434.63 264.08 434.93 265.05 435.53 265.72C436.13 266.4 436.98 266.74 438.08 266.74C439.14 266.74 439.97 266.41 440.57 265.75C441.16 265.09 441.45 264.17 441.45 262.99ZM427.82 259.18L425.92 259.18L425.92 257.72L427.82 257.72L427.82 253.55L429.63 253.55L429.63 257.72L431.53 257.72L431.53 259.18L429.63 259.18L429.63 268.06L427.82 268.06L427.82 259.18ZM417.03 266.33L418.54 265.32C418.82 265.87 419.19 266.28 419.63 266.55C420.07 266.83 420.58 266.96 421.18 266.96C421.75 266.96 422.22 266.82 422.58 266.53C422.94 266.25 423.12 265.87 423.12 265.4C423.12 265.04 422.99 264.74 422.75 264.5C422.51 264.26 422.09 264.03 421.49 263.83L421.19 263.73C418.67 262.86 417.42 261.78 417.42 260.47C417.42 259.55 417.76 258.8 418.44 258.22C419.11 257.64 420 257.35 421.08 257.35C421.98 257.35 422.75 257.53 423.39 257.89C424.03 258.25 424.48 258.76 424.76 259.41L423.33 260.29C423.11 259.81 422.8 259.44 422.4 259.19C421.99 258.93 421.52 258.81 420.97 258.81C420.45 258.81 420.03 258.96 419.7 259.24C419.38 259.54 419.21 259.9 419.21 260.36C419.21 261 419.89 261.53 421.26 261.95C421.52 262.04 421.72 262.09 421.87 262.14C422.99 262.5 423.78 262.92 424.22 263.38C424.66 263.85 424.88 264.46 424.88 265.22C424.88 266.2 424.53 266.99 423.84 267.6C423.14 268.21 422.23 268.51 421.1 268.51C420.14 268.51 419.32 268.32 418.65 267.96C417.98 267.6 417.44 267.06 417.03 266.33ZM407.26 263.16L407.26 263.33C407.26 264.44 407.58 265.33 408.21 266.01C408.84 266.69 409.66 267.03 410.68 267.03C411.37 267.03 412 266.84 412.56 266.47C413.12 266.09 413.61 265.54 414.04 264.78L415.39 265.69C414.87 266.62 414.21 267.32 413.4 267.8C412.59 268.28 411.65 268.52 410.59 268.52C409.01 268.52 407.74 268 406.77 266.96C405.8 265.92 405.31 264.55 405.31 262.87C405.31 261.25 405.79 259.93 406.76 258.9C407.72 257.87 408.96 257.35 410.48 257.35C412.01 257.35 413.22 257.84 414.11 258.82C415 259.8 415.45 261.14 415.45 262.83L415.45 263.16L407.26 263.16ZM413.56 261.73C413.5 260.82 413.19 260.11 412.65 259.61C412.11 259.12 411.36 258.88 410.41 258.88C409.55 258.88 408.84 259.13 408.26 259.65C407.69 260.17 407.35 260.86 407.26 261.73L413.56 261.73ZM403.49 259.52L403.49 260.07C403.49 262.68 402.76 264.73 401.28 266.24C399.8 267.75 397.78 268.5 395.23 268.5C394.46 268.5 393.71 268.41 393.01 268.25C392.31 268.09 391.65 267.84 391.06 267.53C389.7 266.79 388.66 265.76 387.93 264.44C387.19 263.12 386.82 261.63 386.82 259.96C386.82 258.58 387.05 257.34 387.48 256.23C387.92 255.12 388.58 254.14 389.47 253.3C390.21 252.59 391.08 252.05 392.07 251.69C393.05 251.33 394.14 251.14 395.34 251.14C396.93 251.14 398.32 251.43 399.48 252.01C400.65 252.59 401.61 253.45 402.38 254.61L400.73 255.94C400.13 254.93 399.39 254.18 398.5 253.68C397.61 253.18 396.58 252.93 395.4 252.93C393.48 252.93 391.92 253.58 390.72 254.87C389.52 256.17 388.92 257.86 388.92 259.96C388.92 261.93 389.53 263.55 390.74 264.82C391.96 266.08 393.51 266.72 395.39 266.72C397.05 266.72 398.43 266.22 399.53 265.21C400.64 264.2 401.25 262.89 401.37 261.28L396.64 261.28L396.64 259.52L403.49 259.52Z" />
		<path id="Layer" fill-rule="evenodd" class="shp3" d="M843.92 268.07L843.92 250.55L845.73 250.55L845.73 268.07L843.92 268.07ZM840.29 268.06L838.57 268.06L838.57 266.19C838.15 266.95 837.63 267.52 836.99 267.91C836.34 268.31 835.62 268.51 834.83 268.51C833.34 268.51 832.15 268 831.24 266.97C830.33 265.95 829.88 264.6 829.88 262.92C829.88 261.22 830.32 259.86 831.2 258.86C832.08 257.86 833.26 257.35 834.74 257.35C835.6 257.35 836.36 257.54 837 257.93C837.64 258.31 838.15 258.9 838.54 259.67L838.54 257.73L840.29 257.73L840.29 268.06ZM838.57 262.99C838.57 261.82 838.25 260.88 837.62 260.17C836.99 259.45 836.15 259.1 835.13 259.1C834.07 259.1 833.24 259.43 832.64 260.09C832.04 260.75 831.75 261.66 831.75 262.83C831.75 264.08 832.05 265.05 832.65 265.72C833.25 266.4 834.1 266.74 835.2 266.74C836.26 266.74 837.09 266.41 837.69 265.75C838.28 265.09 838.57 264.17 838.57 262.99ZM825.14 268.07L825.14 257.73L826.93 257.73L826.93 268.07L825.14 268.07ZM824.73 252.74C824.73 252.39 824.85 252.09 825.11 251.83C825.36 251.58 825.67 251.45 826.03 251.45C826.38 251.45 826.69 251.57 826.94 251.83C827.19 252.09 827.31 252.4 827.31 252.76C827.31 253.11 827.18 253.41 826.94 253.66C826.69 253.91 826.38 254.03 826.03 254.03C825.67 254.03 825.36 253.91 825.11 253.66C824.85 253.42 824.73 253.11 824.73 252.74ZM812.17 257.73L813.89 257.73L813.89 259.33C814.33 258.67 814.87 258.17 815.5 257.85C816.12 257.53 816.85 257.36 817.67 257.36C818.9 257.36 819.85 257.68 820.54 258.33C821.22 258.98 821.56 259.88 821.56 261.03L821.56 268.07L819.75 268.07L819.75 261.98C819.75 260.93 819.53 260.15 819.09 259.64C818.65 259.14 817.97 258.88 817.05 258.88C816.52 258.88 816.04 258.97 815.6 259.16C815.17 259.35 814.81 259.62 814.53 259.98C814.31 260.25 814.16 260.56 814.07 260.91C813.97 261.26 813.92 261.86 813.92 262.72L813.92 268.07L812.17 268.07L812.17 257.73ZM806.64 268.07L806.64 257.73L808.43 257.73L808.43 268.07L806.64 268.07ZM806.23 252.74C806.23 252.39 806.36 252.09 806.61 251.83C806.86 251.58 807.17 251.45 807.53 251.45C807.88 251.45 808.19 251.57 808.44 251.83C808.69 252.09 808.82 252.4 808.82 252.76C808.82 253.11 808.7 253.41 808.44 253.66C808.19 253.91 807.89 254.03 807.53 254.03C807.17 254.03 806.86 253.91 806.61 253.66C806.36 253.42 806.23 253.11 806.23 252.74ZM801.32 261.98C801.32 260.93 801.11 260.15 800.69 259.64C800.27 259.14 799.62 258.88 798.74 258.88C798.27 258.88 797.83 258.97 797.43 259.16C797.03 259.35 796.69 259.62 796.4 259.98C796.2 260.25 796.05 260.57 795.96 260.93C795.87 261.29 795.82 261.89 795.82 262.72L795.82 268.07L794.11 268.07L794.11 261.98C794.11 260.93 793.9 260.15 793.48 259.64C793.05 259.14 792.4 258.88 791.53 258.88C791.06 258.88 790.62 258.97 790.2 259.16C789.78 259.35 789.44 259.62 789.16 259.98C788.97 260.25 788.83 260.55 788.74 260.9C788.66 261.25 788.61 261.85 788.61 262.72L788.61 268.07L786.91 268.07L786.91 257.73L788.64 257.73L788.64 259.33C789.06 258.67 789.59 258.17 790.18 257.85C790.77 257.53 791.46 257.36 792.23 257.36C793.06 257.36 793.78 257.54 794.37 257.9C794.95 258.26 795.4 258.78 795.7 259.46C796.14 258.75 796.67 258.22 797.28 257.88C797.89 257.53 798.59 257.36 799.39 257.36C800.54 257.36 801.44 257.68 802.09 258.33C802.74 258.98 803.06 259.88 803.06 261.03L803.06 268.07L801.32 268.07L801.32 261.98ZM772.92 262.92C772.92 262.16 773.06 261.44 773.34 260.77C773.62 260.09 774.03 259.5 774.56 258.96C775.09 258.44 775.7 258.04 776.38 257.76C777.06 257.48 777.78 257.35 778.55 257.35C779.31 257.35 780.02 257.49 780.69 257.76C781.37 258.04 781.98 258.45 782.52 258.99C783.06 259.51 783.47 260.11 783.75 260.78C784.03 261.46 784.16 262.17 784.16 262.92C784.16 263.68 784.02 264.39 783.75 265.05C783.47 265.72 783.06 266.32 782.52 266.83C781.98 267.38 781.36 267.79 780.68 268.08C780 268.36 779.29 268.51 778.55 268.51C777.79 268.51 777.07 268.37 776.39 268.09C775.71 267.81 775.1 267.4 774.56 266.87C774.03 266.32 773.62 265.72 773.34 265.06C773.05 264.39 772.92 263.68 772.92 262.92ZM774.79 262.92C774.79 264.02 775.16 264.94 775.89 265.7C776.62 266.45 777.5 266.83 778.55 266.83C779.58 266.83 780.46 266.45 781.18 265.7C781.91 264.94 782.27 264.02 782.27 262.92C782.27 261.82 781.91 260.9 781.18 260.14C780.45 259.39 779.57 259.01 778.55 259.01C777.51 259.01 776.62 259.39 775.89 260.14C775.16 260.9 774.79 261.83 774.79 262.92ZM770.14 268.07L768.42 268.07L768.42 266.2C768.01 266.95 767.49 267.52 766.84 267.92C766.19 268.32 765.47 268.52 764.67 268.52C763.18 268.52 761.99 268.01 761.08 266.98C760.17 265.96 759.71 264.61 759.71 262.93C759.71 261.24 760.16 259.89 761.05 258.88C761.94 257.87 763.12 257.36 764.59 257.36C765.45 257.36 766.2 257.55 766.83 257.94C767.46 258.32 767.98 258.91 768.37 259.68L768.37 250.56L770.14 250.56L770.14 268.07ZM768.43 262.95C768.43 261.79 768.11 260.86 767.47 260.16C766.83 259.46 765.99 259.1 764.94 259.1C763.9 259.1 763.08 259.42 762.49 260.06C761.9 260.7 761.61 261.59 761.61 262.72C761.61 263.99 761.91 264.99 762.5 265.7C763.1 266.42 763.91 266.78 764.96 266.78C766.05 266.78 766.9 266.44 767.51 265.76C768.12 265.09 768.43 264.15 768.43 262.95ZM747.62 257.73L749.35 257.73L749.35 259.33C749.8 258.67 750.34 258.17 750.96 257.85C751.59 257.53 752.3 257.36 753.12 257.36C754.35 257.36 755.3 257.68 755.99 258.33C756.67 258.98 757.01 259.88 757.01 261.03L757.01 268.07L755.2 268.07L755.2 261.98C755.2 260.93 754.98 260.15 754.55 259.64C754.11 259.14 753.43 258.88 752.51 258.88C751.98 258.88 751.5 258.97 751.06 259.16C750.63 259.35 750.27 259.62 749.99 259.98C749.77 260.25 749.62 260.56 749.52 260.91C749.42 261.26 749.37 261.86 749.37 262.72L749.37 268.07L747.62 268.07L747.62 257.73ZM733.61 262.92C733.61 262.16 733.75 261.44 734.03 260.77C734.31 260.09 734.72 259.5 735.25 258.96C735.78 258.44 736.39 258.04 737.07 257.76C737.74 257.48 738.47 257.35 739.24 257.35C740 257.35 740.71 257.49 741.39 257.76C742.07 258.04 742.68 258.45 743.22 258.99C743.76 259.51 744.17 260.11 744.45 260.78C744.73 261.46 744.86 262.17 744.86 262.92C744.86 263.68 744.72 264.39 744.45 265.05C744.17 265.72 743.76 266.32 743.22 266.83C742.67 267.38 742.06 267.79 741.38 268.08C740.7 268.36 739.99 268.51 739.25 268.51C738.49 268.51 737.77 268.37 737.09 268.09C736.41 267.81 735.8 267.4 735.26 266.87C734.73 266.32 734.32 265.72 734.04 265.06C733.75 264.39 733.61 263.68 733.61 262.92ZM735.49 262.92C735.49 264.02 735.86 264.94 736.58 265.7C737.31 266.45 738.19 266.83 739.24 266.83C740.27 266.83 741.15 266.45 741.88 265.7C742.61 264.94 742.97 264.02 742.97 262.92C742.97 261.82 742.61 260.9 741.88 260.14C741.15 259.39 740.28 259.01 739.24 259.01C738.2 259.01 737.31 259.39 736.58 260.14C735.86 260.9 735.49 261.83 735.49 262.92ZM731.28 255.47C730.48 254.61 729.65 253.98 728.75 253.57C727.85 253.15 726.86 252.95 725.78 252.95C724.9 252.95 724.05 253.12 723.22 253.48C722.38 253.83 721.66 254.33 721.05 254.96C720.41 255.61 719.94 256.34 719.62 257.15C719.3 257.96 719.14 258.86 719.14 259.84C719.14 260.61 719.23 261.31 719.42 261.96C719.61 262.61 719.89 263.21 720.27 263.75C720.94 264.69 721.75 265.42 722.72 265.92C723.68 266.43 724.73 266.69 725.85 266.69C726.91 266.69 727.89 266.48 728.79 266.03C729.69 265.59 730.52 264.94 731.27 264.08L731.27 266.69C730.45 267.29 729.56 267.74 728.62 268.04C727.67 268.35 726.69 268.5 725.69 268.5C724.82 268.5 723.96 268.37 723.13 268.11C722.3 267.85 721.53 267.47 720.8 266.97C719.6 266.13 718.68 265.1 718.05 263.88C717.41 262.66 717.09 261.32 717.09 259.86C717.09 258.59 717.3 257.43 717.73 256.38C718.16 255.34 718.81 254.39 719.68 253.54C720.52 252.72 721.46 252.12 722.49 251.72C723.51 251.32 724.63 251.12 725.85 251.12C726.81 251.12 727.73 251.26 728.63 251.55C729.53 251.85 730.42 252.29 731.29 252.91L731.29 255.47L731.28 255.47ZM707.3 268.06L705.58 268.06L705.58 266.19C705.17 266.95 704.64 267.52 704 267.91C703.35 268.31 702.63 268.51 701.84 268.51C700.35 268.51 699.15 268 698.25 266.97C697.34 265.95 696.88 264.6 696.88 262.92C696.88 261.22 697.32 259.86 698.21 258.86C699.09 257.86 700.27 257.35 701.74 257.35C702.61 257.35 703.36 257.54 704 257.93C704.64 258.31 705.15 258.9 705.54 259.67L705.54 257.73L707.3 257.73L707.3 268.06ZM705.58 262.99C705.58 261.82 705.26 260.88 704.63 260.17C704 259.45 703.16 259.1 702.14 259.1C701.08 259.1 700.25 259.43 699.65 260.09C699.06 260.75 698.76 261.66 698.76 262.83C698.76 264.08 699.06 265.05 699.66 265.72C700.25 266.4 701.11 266.74 702.2 266.74C703.26 266.74 704.09 266.41 704.69 265.75C705.28 265.09 705.58 264.17 705.58 262.99ZM692.15 268.07L692.15 257.73L693.94 257.73L693.94 268.07L692.15 268.07ZM691.74 252.74C691.74 252.39 691.86 252.09 692.12 251.83C692.37 251.58 692.68 251.45 693.04 251.45C693.39 251.45 693.69 251.57 693.95 251.83C694.2 252.09 694.32 252.4 694.32 252.76C694.32 253.11 694.2 253.41 693.95 253.66C693.7 253.91 693.4 254.03 693.04 254.03C692.68 254.03 692.37 253.91 692.12 253.66C691.86 253.42 691.74 253.11 691.74 252.74ZM688.48 267.88C688.48 269 688.41 269.8 688.25 270.28C688.1 270.76 687.85 271.18 687.51 271.55C687.03 272.07 686.44 272.46 685.74 272.72C685.04 272.98 684.24 273.1 683.33 273.1C681.76 273.1 680.54 272.74 679.67 272.03C678.79 271.32 678.33 270.3 678.29 268.99L680.28 268.99L680.28 269.13C680.28 269.91 680.55 270.5 681.09 270.93C681.62 271.35 682.38 271.56 683.36 271.56C684.07 271.56 684.67 271.45 685.18 271.22C685.68 270.99 686.06 270.65 686.32 270.19C686.48 269.93 686.59 269.63 686.66 269.3C686.72 268.96 686.76 268.47 686.76 267.85L686.76 266.1C686.36 266.84 685.84 267.41 685.19 267.8C684.54 268.2 683.82 268.4 683.01 268.4C681.52 268.4 680.32 267.89 679.42 266.88C678.51 265.87 678.05 264.53 678.05 262.86C678.05 261.17 678.49 259.83 679.38 258.84C680.26 257.85 681.44 257.36 682.92 257.36C683.78 257.36 684.53 257.55 685.18 257.94C685.83 258.32 686.34 258.9 686.72 259.66L686.72 257.73L688.48 257.73L688.48 267.88ZM686.76 262.92C686.76 261.76 686.44 260.83 685.82 260.12C685.18 259.41 684.35 259.06 683.32 259.06C682.26 259.06 681.43 259.38 680.83 260.04C680.23 260.7 679.94 261.61 679.94 262.79C679.94 264.04 680.24 265.01 680.84 265.68C681.44 266.35 682.29 266.7 683.39 266.7C684.45 266.7 685.28 266.37 685.88 265.7C686.47 265.03 686.76 264.11 686.76 262.92ZM664.84 262.92C664.84 262.16 664.98 261.44 665.26 260.77C665.54 260.09 665.95 259.5 666.48 258.96C667.01 258.44 667.62 258.04 668.29 257.76C668.97 257.48 669.69 257.35 670.46 257.35C671.22 257.35 671.93 257.49 672.61 257.76C673.28 258.04 673.89 258.45 674.44 258.99C674.98 259.51 675.39 260.11 675.67 260.78C675.94 261.46 676.08 262.17 676.08 262.92C676.08 263.68 675.94 264.39 675.67 265.05C675.39 265.72 674.98 266.32 674.44 266.83C673.9 267.38 673.28 267.79 672.6 268.08C671.92 268.36 671.21 268.51 670.47 268.51C669.71 268.51 668.99 268.37 668.3 268.09C667.62 267.81 667.01 267.4 666.48 266.87C665.95 266.32 665.54 265.72 665.26 265.06C664.98 264.39 664.84 263.68 664.84 262.92ZM666.72 262.92C666.72 264.02 667.09 264.94 667.82 265.7C668.55 266.45 669.44 266.83 670.48 266.83C671.51 266.83 672.39 266.45 673.12 265.7C673.84 264.94 674.2 264.02 674.2 262.92C674.2 261.82 673.84 260.9 673.12 260.14C672.39 259.39 671.51 259.01 670.48 259.01C669.44 259.01 668.55 259.39 667.82 260.14C667.08 260.9 666.72 261.83 666.72 262.92ZM660.16 268.07L660.16 250.55L661.97 250.55L661.97 268.07L660.16 268.07ZM646.07 262.92C646.07 262.16 646.21 261.44 646.49 260.77C646.77 260.09 647.18 259.5 647.71 258.96C648.24 258.44 648.86 258.04 649.53 257.76C650.2 257.48 650.93 257.35 651.7 257.35C652.45 257.35 653.17 257.49 653.84 257.76C654.52 258.04 655.13 258.45 655.67 258.99C656.21 259.51 656.61 260.11 656.89 260.78C657.17 261.46 657.31 262.17 657.31 262.92C657.31 263.68 657.17 264.39 656.89 265.05C656.61 265.72 656.2 266.32 655.67 266.83C655.12 267.38 654.51 267.79 653.82 268.08C653.14 268.36 652.43 268.51 651.69 268.51C650.93 268.51 650.2 268.37 649.52 268.09C648.84 267.81 648.23 267.4 647.69 266.87C647.16 266.32 646.75 265.72 646.47 265.06C646.21 264.39 646.07 263.68 646.07 262.92ZM647.94 262.92C647.94 264.02 648.31 264.94 649.04 265.7C649.77 266.45 650.65 266.83 651.7 266.83C652.73 266.83 653.61 266.45 654.34 265.7C655.06 264.94 655.42 264.02 655.42 262.92C655.42 261.82 655.06 260.9 654.34 260.14C653.61 259.39 652.73 259.01 651.7 259.01C650.65 259.01 649.77 259.39 649.04 260.14C648.31 260.9 647.94 261.83 647.94 262.92ZM634.01 257.73L635.74 257.73L635.74 259.33C636.19 258.67 636.73 258.17 637.35 257.85C637.97 257.53 638.7 257.36 639.52 257.36C640.75 257.36 641.7 257.68 642.39 258.33C643.07 258.98 643.41 259.88 643.41 261.03L643.41 268.07L641.6 268.07L641.6 261.98C641.6 260.93 641.38 260.15 640.94 259.64C640.5 259.14 639.82 258.88 638.9 258.88C638.36 258.88 637.89 258.97 637.45 259.16C637.02 259.35 636.66 259.62 636.37 259.98C636.15 260.25 636 260.56 635.91 260.91C635.81 261.26 635.76 261.86 635.76 262.72L635.76 268.07L634.01 268.07L634.01 257.73ZM631.55 265.61L631.55 267.67C631.08 267.94 630.56 268.16 629.97 268.29C629.39 268.43 628.75 268.5 628.07 268.5C626.48 268.5 625.19 267.99 624.21 266.98C623.23 265.97 622.75 264.64 622.75 262.99C622.75 261.33 623.25 259.98 624.27 258.92C625.28 257.87 626.57 257.35 628.14 257.35C628.71 257.35 629.27 257.41 629.82 257.53C630.36 257.65 630.88 257.83 631.36 258.07L631.36 259.97C630.9 259.67 630.44 259.45 629.96 259.29C629.48 259.14 628.98 259.06 628.49 259.06C627.33 259.06 626.39 259.42 625.69 260.15C624.99 260.88 624.64 261.85 624.64 263.05C624.64 264.11 624.99 265 625.69 265.71C626.39 266.43 627.28 266.79 628.34 266.79C628.87 266.79 629.39 266.7 629.92 266.51C630.44 266.32 630.98 266.02 631.55 265.61ZM612.75 263.16L612.75 263.33C612.75 264.44 613.06 265.33 613.7 266.01C614.33 266.69 615.15 267.03 616.17 267.03C616.86 267.03 617.49 266.84 618.05 266.47C618.61 266.09 619.1 265.54 619.53 264.78L620.87 265.69C620.35 266.62 619.69 267.32 618.88 267.8C618.07 268.28 617.14 268.52 616.07 268.52C614.5 268.52 613.22 268 612.25 266.96C611.28 265.92 610.79 264.55 610.79 262.87C610.79 261.25 611.27 259.93 612.24 258.9C613.2 257.87 614.44 257.35 615.95 257.35C617.48 257.35 618.69 257.84 619.58 258.82C620.48 259.8 620.92 261.14 620.92 262.83L620.92 263.16L612.75 263.16ZM619.04 261.73C618.98 260.82 618.67 260.11 618.13 259.61C617.58 259.12 616.83 258.88 615.88 258.88C615.02 258.88 614.31 259.13 613.73 259.65C613.16 260.17 612.83 260.86 612.73 261.73L619.04 261.73Z" />
		<path id="Layer" fill-rule="evenodd" class="shp6" d="M529.05 103.62C531.37 103.62 533.53 104.06 535.52 104.92C537.51 105.78 539.26 106.97 540.77 108.46C542.26 109.97 543.45 111.73 544.31 113.71C545.17 115.7 545.59 117.85 545.59 120.18L545.59 136.78L529.06 136.78C526.8 136.78 524.66 136.34 522.65 135.48C520.62 134.62 518.86 133.43 517.34 131.9C515.81 130.37 514.6 128.61 513.74 126.58C512.88 124.57 512.44 122.43 512.44 120.17C512.44 117.84 512.88 115.69 513.74 113.7C514.6 111.71 515.81 109.95 517.34 108.45C518.87 106.97 520.63 105.77 522.65 104.91C524.65 104.06 526.79 103.62 529.05 103.62ZM539.02 120.17C539.02 118.79 538.77 117.49 538.24 116.28C537.72 115.09 537 114.02 536.1 113.12C535.2 112.22 534.14 111.49 532.94 110.97C531.72 110.45 530.43 110.2 529.05 110.2C527.67 110.2 526.37 110.45 525.14 110.97C523.9 111.5 522.83 112.23 521.94 113.12C521.04 114.02 520.33 115.09 519.8 116.28C519.28 117.49 519.01 118.79 519.01 120.17C519.01 121.53 519.28 122.83 519.8 124.06C520.33 125.29 521.04 126.38 521.94 127.28C522.84 128.18 523.91 128.89 525.14 129.42C526.37 129.94 527.67 130.19 529.05 130.19L539.02 130.19L539.02 120.17ZM510.15 136.77L506.9 136.77C504.62 136.77 502.48 136.33 500.48 135.47C498.45 134.61 496.69 133.42 495.16 131.89C493.63 130.36 492.44 128.6 491.58 126.57C490.72 124.56 490.28 122.42 490.28 120.16L490.28 90.31L496.85 90.31L496.85 110.26L510.14 110.26L510.14 116.83L496.85 116.83L496.85 120.16C496.85 121.52 497.1 122.82 497.62 124.05C498.14 125.28 498.86 126.37 499.78 127.27C500.68 128.17 501.75 128.88 502.98 129.41C504.21 129.93 505.51 130.18 506.89 130.18L510.15 130.18L510.15 136.77ZM484.97 110.19L464.96 110.19C464.02 110.19 463.25 110.51 462.59 111.16C461.94 111.8 461.63 112.58 461.63 113.52C461.63 114.46 461.94 115.26 462.59 115.9C463.24 116.57 464.01 116.91 464.96 116.91L478.25 116.91C479.63 116.91 480.93 117.16 482.14 117.68C483.33 118.2 484.4 118.91 485.3 119.79C486.2 120.69 486.91 121.74 487.43 122.93C487.95 124.12 488.2 125.42 488.2 126.8C488.2 128.18 487.95 129.48 487.43 130.67C486.9 131.88 486.2 132.95 485.3 133.85C484.4 134.75 483.33 135.47 482.14 135.99C480.93 136.51 479.63 136.76 478.25 136.76L458.32 136.76L458.32 130.19L478.25 130.19C479.23 130.19 480.05 129.88 480.7 129.23C481.33 128.6 481.64 127.79 481.64 126.8C481.64 125.86 481.33 125.08 480.7 124.43C480.05 123.78 479.24 123.47 478.25 123.47L464.96 123.47C463.58 123.47 462.28 123.22 461.09 122.7C459.9 122.18 458.85 121.47 457.97 120.56C457.07 119.66 456.38 118.59 455.86 117.38C455.34 116.19 455.06 114.89 455.06 113.51C455.06 112.13 455.33 110.83 455.86 109.64C456.38 108.44 457.08 107.4 457.97 106.5C458.85 105.62 459.9 104.91 461.09 104.38C462.28 103.86 463.58 103.61 464.96 103.61L484.97 103.61L484.97 110.19ZM446.52 103.62L453.01 103.62L453.01 136.77L446.52 136.77L446.52 103.62ZM444.45 103.47L427.16 136.71L409.95 103.47L417.34 103.47C418.03 104.81 418.8 106.32 419.71 108.01C420.59 109.71 421.47 111.45 422.37 113.18C423.25 114.94 424.13 116.63 424.98 118.25C425.84 119.86 426.57 121.26 427.16 122.45C427.89 121.03 428.75 119.39 429.71 117.53C430.67 115.69 431.61 113.85 432.56 112.02C433.5 110.2 434.36 108.53 435.13 106.98C435.9 105.43 436.53 104.26 436.97 103.46L444.45 103.46L444.45 103.47ZM402.95 125.12L407.6 129.76L405.32 132.06C403.75 133.63 401.95 134.84 399.94 135.68C397.91 136.52 395.79 136.94 393.58 136.94C391.36 136.94 389.25 136.52 387.24 135.68C385.21 134.84 383.41 133.63 381.84 132.06C380.21 130.43 378.99 128.59 378.22 126.53C377.44 124.5 377.05 122.41 377.05 120.29C377.05 118.18 377.45 116.12 378.22 114.09C378.99 112.08 380.21 110.26 381.84 108.62C383.46 107.01 385.3 105.79 387.34 104.98C389.37 104.17 391.47 103.77 393.58 103.77C395.69 103.77 397.76 104.17 399.82 104.98C401.85 105.79 403.69 107.01 405.33 108.62L407.61 110.92L389.23 129.3C391.1 130.24 393.08 130.53 395.18 130.22C397.27 129.91 399.09 128.95 400.66 127.37L402.95 125.12ZM386.47 113.23C384.5 115.2 383.52 117.56 383.52 120.32C383.52 121.85 383.85 123.29 384.55 124.67C385.16 124.09 386.06 123.19 387.27 121.97C388.46 120.78 389.74 119.5 391.1 118.14C392.46 116.78 393.76 115.48 395.01 114.25C396.27 113.02 397.23 112.07 397.92 111.38C396.06 110.44 394.07 110.12 391.98 110.41C389.88 110.71 388.04 111.66 386.47 113.23ZM375.04 110.19L371.72 110.19C370.34 110.19 369.04 110.44 367.85 110.96C366.63 111.49 365.57 112.22 364.67 113.11C363.77 114.01 363.06 115.08 362.54 116.27C362.02 117.48 361.77 118.78 361.77 120.16L361.77 136.76L355.11 136.76L355.11 120.16C355.11 117.83 355.55 115.68 356.41 113.69C357.26 111.7 358.46 109.94 359.99 108.44C361.52 106.96 363.28 105.76 365.3 104.9C367.31 104.04 369.45 103.6 371.73 103.6L375.04 103.6L375.04 110.19Z" />
	</g>
</svg>